{
    "fluentMethods": true,
    "relationships": [
        {
            "relationshipName": "tags",
            "otherEntityName": "tag",
            "relationshipType": "many-to-many",
            "otherEntityField": "title",
            "ownerSide": true,
            "otherEntityRelationshipName": "node"
        },
        {
            "relationshipName": "place",
            "otherEntityName": "place",
            "relationshipType": "many-to-many",
            "otherEntityField": "name",
            "ownerSide": true,
            "otherEntityRelationshipName": "node"
        }
    ],
    "fields": [
        {
            "fieldName": "title",
            "fieldType": "String",
            "fieldValidateRules": [
                "required"
            ]
        },
        {
            "fieldName": "body",
            "fieldType": "String",
            "fieldValidateRules": [
                "required"
            ]
        },
        {
            "fieldName": "influenceArea",
            "fieldType": "String",
            "fieldValidateRules": [
                "required"
            ]
        },
        {
            "fieldName": "topic",
            "fieldType": "Topic",
            "fieldValues": "Educacion,Trabajo,Emprendurismo",
            "fieldValidateRules": [
                "required"
            ]
        },
        {
            "fieldName": "type",
            "fieldType": "TypeNode",
            "fieldValues": "Foro,Blog,ProgramaApoyo,Notas,BolsaTabajo,Eventos,Convocatoria,OficinaAtencion",
            "fieldValidateRules": [
                "required"
            ]
        },
        {
            "fieldName": "file",
            "fieldType": "byte[]",
            "fieldTypeBlobContent": "any"
        }
    ],
    "changelogDate": "20180221162733",
    "dto": "no",
    "service": "no",
    "entityTableName": "node",
    "jpaMetamodelFiltering": false,
    "pagination": "infinite-scroll"
}
